-------------------------------------------------------------------------------
Test set: com.zhixuan.demo.DemoApplicationTests
-------------------------------------------------------------------------------
Tests run: 1, Failures: 0, Errors: 0, Skipped: 0, Time elapsed: 4.03 sec - in com.zhixuan.demo.DemoApplicationTests
